Division,WeightClassKg,Place,Name,Team,BodyweightKg,Best3SquatKg,Best3BenchKg,Best3DeadliftKg,TotalKg,Equipment,Event,Sex,BirthDate
Girls,51.94,1,Brynlee Dutton,Midland Greenwood,50.44,86.18,43.09,86.18,215.46,Unlimited,SBD,F,
Girls,51.94,DQ,Miza Shyrock,Andrews,48.08,77.11,,,,Unlimited,SBD,F,
Girls,56.02,1,Isabella Rodriguez,Andrews,55.97,61.23,38.56,77.11,176.9,Unlimited,SBD,F,
Girls,60.1,1,Kim Olivas,Midland Greenwood,59.78,108.86,56.7,111.13,276.69,Unlimited,SBD,F,
Girls,60.1,2,Yvanka Martinez,Big Spring,59.24,92.99,45.36,95.25,233.6,Unlimited,SBD,F,
Girls,60.1,3,Neela Driver,Andrews,57.52,86.18,38.56,83.91,208.65,Unlimited,SBD,F,
Girls,67.36,1,Elena Urquidez,Andrews,63.96,113.4,56.7,127.01,297.1,Unlimited,SBD,F,
Girls,67.36,2,Juanita Cuellar,Big Spring,62.96,88.45,40.82,113.4,242.67,Unlimited,SBD,F,
Girls,67.36,3,Lyleanna Chavarria,Andrews,65.95,90.72,43.09,95.25,229.06,Unlimited,SBD,F,
Girls,67.36,4,McKenna De La Rosa,Midland Greenwood,65.41,79.38,47.63,88.45,215.46,Unlimited,SBD,F,
Girls,67.36,5,Arielle Viera,Big Spring,66.86,74.84,31.75,86.18,192.78,Unlimited,SBD,F,
Girls,67.36,6,Adyson Micheletti,Midland Greenwood,65.41,79.38,29.48,63.5,172.37,Unlimited,SBD,F,
Girls,75.07,1,Tara Porter,Big Spring,74.84,92.99,61.23,115.67,269.89,Unlimited,SBD,F,
Girls,75.07,2,Elena Bentley,Midland Greenwood,72.3,108.86,40.82,113.4,263.08,Unlimited,SBD,F,
Girls,75.07,3,Allison Hillhouse,Big Spring,74.75,97.52,40.82,108.86,247.21,Unlimited,SBD,F,
Girls,75.07,4,Hazel Rangel,Big Spring,72.39,79.38,52.16,88.45,219.99,Unlimited,SBD,F,
Girls,82.33,1,Angel Evans,Big Spring,77.11,102.06,45.36,95.25,242.67,Unlimited,SBD,F,
Girls,82.33,DQ,Angel Smith,Midland Greenwood,78.2,136.08,,,,Unlimited,SBD,F,
Girls,90.04,1,Essence Reynolds,Big Spring,89.99,106.59,56.7,120.2,283.5,Unlimited,SBD,F,
Girls,90.04,2,JoJo Gonzalez,Big Spring,89.36,97.52,45.36,115.67,258.55,Unlimited,SBD,F,
Girls,90.04,3,Daliyah O'Hara,Big Spring,89.9,45.36,45.36,83.91,174.63,Unlimited,SBD,F,
Girls,100.02,1,Destiny Hodnett,Big Spring,95.44,124.74,68.04,136.08,328.85,Unlimited,SBD,F,
Girls,100.02,2,Kaitlin Underdown,Midland Greenwood,92.17,79.38,56.7,79.38,215.46,Unlimited,SBD,F,
Girls,100.02,3,Jillian Bush,Midland Greenwood,90.9,61.23,38.56,79.38,179.17,Unlimited,SBD,F,
Girls,110,1,Cloey Hughes,Andrews,109.23,92.99,47.63,81.65,222.26,Unlimited,SBD,F,
Girls,110,DQ,Alexandra Gallegos,Andrews,108.05,,,,,Unlimited,SBD,F,
